,0
SAT (ob),Obese
SAT (ob).1,Obese
SAT (ob).2,Obese
SAT (ob).3,Obese
SAT (ob).4,Obese
SAT (ob).5,Obese
SAT (lean),Lean
SAT (lean).1,Lean
SAT (lean).2,Lean
VAT (ob),Obese
VAT (ob).1,Obese
VAT (ob).2,Obese
VAT (ob).3,Obese
VAT (ob).4,Obese
VAT (ob).5,Obese
VAT (lean),Lean
VAT (lean).1,Lean
VAT (lean).2,Lean
